<svg xmlns="http://www.w3.org/2000/svg" viewBox="0 0 32 32">
    <defs>
        <style>.cls-2{fill:none;}</style>
    </defs>
        <path d="M25,6a7.11,7.11,0,0,0-4,1.13A5.14,5.14,0,0,1,18,8a5.14,5.14,0,0,1-3-.87A7.11,7.11,0,0,0,11,6,1,1,0,0,0,9,6V27a1,1,0,0,0,2,0V17a5.14,5.14,0,0,1,3,.87A7.11,7.11,0,0,0,18,19a7.11,7.11,0,0,0,4-1.13A5.14,5.14,0,0,1,25,17a1,1,0,0,0,1-1V7A1,1,0,0,0,25,6Z"/>
        <rect class="cls-2" width="32" height="32"/>
</svg>