<?xml version="1.0" standalone="no"?>
<!DOCTYPE svg PUBLIC "-//W3C//DTD SVG 1.1//EN" "http://www.w3.org/Graphics/SVG/1.1/DTD/svg11.dtd" >
<svg xmlns="http://www.w3.org/2000/svg">
<metadata>Generated by IcoMoon</metadata>
<defs>
<font id="icomoon" horiz-adv-x="1024">
<font-face units-per-em="1024" ascent="960" descent="-64" />
<missing-glyph horiz-adv-x="1024" />
<glyph unicode="&#x20;" horiz-adv-x="512" d="" />
<glyph unicode="&#xe900;" glyph-name="fis--flag" d="M800 768c-1.443 0.033-3.143 0.052-4.848 0.052-45.754 0-88.353-13.506-124.030-36.748l0.877 0.536c-25.726-17.474-57.468-27.898-91.646-27.898-1.531 0-3.057 0.021-4.579 0.062l0.224-0.005c-1.297-0.037-2.823-0.058-4.354-0.058-34.177 0-65.92 10.424-92.222 28.266l0.576-0.369c-34.799 22.706-77.398 36.212-123.152 36.212-1.705 0-3.405-0.019-5.1-0.056l0.253 0.004c0 17.673-14.327 32-32 32s-32-14.327-32-32v0-672c0-17.673 14.327-32 32-32s32 14.327 32 32v0 320c1.297 0.037 2.823 0.058 4.354 0.058 34.177 0 65.92-10.424 92.222-28.266l-0.576 0.369c34.799-22.706 77.398-36.212 123.152-36.212 1.705 0 3.405 0.019 5.1 0.056l-0.253-0.004c1.443-0.033 3.143-0.052 4.848-0.052 45.754 0 88.353 13.506 124.030 36.748l-0.877-0.536c25.726 17.474 57.468 27.898 91.646 27.898 1.531 0 3.057-0.021 4.579-0.062l-0.224 0.005c17.673 0 32 14.327 32 32v0 288c0 17.673-14.327 32-32 32v0z" />
<glyph unicode="&#xe902;" glyph-name="fis-location" d="M512 864c-2.56 0-256-3.2-256-288 0-199.68 220.48-516.8 229.76-530.24 5.86-8.317 15.423-13.684 26.24-13.684s20.38 5.367 26.172 13.583l0.068 0.101c9.28 13.44 229.76 330.56 229.76 530.24 0 284.8-253.44 288-256 288zM512 544c-35.346 0-64 28.654-64 64s28.654 64 64 64c35.346 0 64-28.654 64-64v0c0-35.346-28.654-64-64-64v0z" />
<glyph unicode="&#xe903;" glyph-name="fis-logout" d="M160 832h160c17.673 0 32-14.327 32-32v-704c0-17.673-14.327-32-32-32h-160c-17.673 0-32 14.327-32 32v704c0 17.673 14.327 32 32 32zM893.44 435.84c1.518 3.595 2.4 7.774 2.4 12.16s-0.882 8.565-2.479 12.371l0.078-0.211c-1.614 4.098-3.89 7.608-6.731 10.571l-255.989 255.989c-5.815 5.815-13.847 9.411-22.72 9.411-17.745 0-32.131-14.386-32.131-32.131 0-8.873 3.596-16.905 9.411-22.72v0l201.6-201.28h-338.88c-17.673 0-32-14.327-32-32s14.327-32 32-32v0h338.88l-201.6-201.28c-5.846-5.8-9.466-13.837-9.466-22.72s3.619-16.92 9.463-22.718l0.002-0.002c5.8-5.846 13.837-9.466 22.72-9.466s16.92 3.619 22.718 9.463l256.002 256.002c2.83 2.952 5.106 6.462 6.644 10.343l0.076 0.217z" />
<glyph unicode="&#xe904;" glyph-name="fis-settings" d="M922.88 509.44c-1.944 12.439-10.824 22.389-22.494 25.862l-0.226 0.058-104.32 30.080 52.48 96c2.471 4.433 3.926 9.725 3.926 15.357 0 7.102-2.313 13.663-6.227 18.971l0.062-0.088c-24.902 33.43-53.61 62.137-85.941 86.256l-1.099 0.784c-5.221 3.852-11.782 6.166-18.883 6.166-5.632 0-10.923-1.455-15.52-4.009l0.163 0.083-96-52.48-30.080 104.32c-3.531 11.896-13.481 20.776-25.739 22.697l-0.181 0.023c-18.472 3.36-39.732 5.282-61.44 5.282s-42.968-1.921-63.618-5.604l2.178 0.322c-12.439-1.944-22.389-10.824-25.862-22.494l-0.058-0.226-30.080-104.32-96 52.48c-4.433 2.471-9.725 3.926-15.357 3.926-7.102 0-13.663-2.313-18.971-6.227l0.088 0.062c-32.937-25.125-61.232-54.030-84.938-86.499l-0.822-1.181c-3.852-5.221-6.166-11.782-6.166-18.883 0-5.632 1.455-10.923 4.009-15.52l-0.083 0.163 52.48-96-104.32-30.080c-11.896-3.531-20.776-13.481-22.697-25.739l-0.023-0.181c-3.258-18.471-5.12-39.738-5.12-61.44s1.862-42.969 5.436-63.65l-0.316 2.21c1.944-12.439 10.824-22.389 22.494-25.862l0.226-0.058 104.32-30.080-52.48-96c-2.471-4.433-3.926-9.725-3.926-15.357 0-7.102 2.313-13.663 6.227-18.971l-0.062 0.088c24.902-33.43 53.61-62.137 85.941-86.256l1.099-0.784c5.221-3.852 11.782-6.166 18.883-6.166 5.632 0 10.923 1.455 15.52 4.009l-0.163-0.083 96 52.48 30.080-104.32c3.531-11.896 13.481-20.776 25.739-22.697l0.181-0.023c18.471-3.258 39.738-5.12 61.44-5.12s42.969 1.862 63.65 5.436l-2.21-0.316c12.439 1.944 22.389 10.824 25.862 22.494l0.058 0.226 30.080 104.32 96-52.48c4.433-2.471 9.725-3.926 15.357-3.926 7.102 0 13.663 2.313 18.971 6.227l-0.088-0.062c33.43 24.902 62.137 53.61 86.256 85.941l0.784 1.099c3.852 5.221 6.166 11.782 6.166 18.883 0 5.632-1.455 10.923-4.009 15.52l0.083-0.163-52.48 96 104.32 30.080c11.896 3.531 20.776 13.481 22.697 25.739l0.023 0.181c3.258 18.471 5.12 39.738 5.12 61.44s-1.862 42.969-5.436 63.65l0.316-2.21zM512 352c-53.019 0-96 42.981-96 96s42.981 96 96 96c53.019 0 96-42.981 96-96v0c0-53.019-42.981-96-96-96v0z" />
</font></defs></svg>